{
    "compilerOptions": {
        "baseUrl": ".",
        "paths": {
            "@config/*": [
                "config/*"
            ],
            "@src/*": [
                "src/*"
            ],
            "@images/*": [
                "src/assets/images/*"
            ],
            "@views": [
                "src/views/*"
            ],
            "@router/*": [
                "src/router/*"
            ],
            "@assets/*": [
                "src/assets/*"
            ],
            "@styles/*": [
                "src/assets/styles/*"
            ],
            "@components/*": [
                "src/components/*"
            ],
            "@state/*": [
                "src/state/*"
            ]
        }
    }
}